[
  {
    "name": "Jean 2FFR",
        "price": 100,
        "qty": 3,
        "color": ["blue", "white"],
        "size": ["S", "M"],
        "brand": "LV",
        "category": "Pants",
        "imageUrl": "https://cdn3.yame.vn/pimg/quan-jean-nam-ma-bu-dai-b87-0015399/fd92080c-a678-2900-1208-0013ff9a98ea.jpg?w=540&h=756&c=true&ntf=false"
  },
  {
    "name": "Jean 3FFS",
        "price": 103,
        "qty": 7,
        "color": ["black", "white"],
        "size": ["S", "M", "L"],
        "brand": "Yame",
        "category": "Pants",
        "imageUrl": "https://s7d2.scene7.com/is/image/aeo/0436_1083_447_of?$PDP_78_Main$"
  },
  {
    "name": "Jean EFS",
        "price": 100,
        "qty": 3,
        "color": ["blue", "white"],
        "size": ["S", "M"],
        "brand": "HM",
        "category": "Pants",
        "imageUrl": "http://s7d9.scene7.com/is/image/AmericanApparel/rsads300w_mediumwash_01"
  },
  {
    "name": "Jean 98UF",
        "price": 100,
        "qty": 3,
        "color": ["black", "white"],
        "size": ["M"],
        "brand": "LV",
        "category": "Pants",
        "imageUrl": "https://saigonnewstyles.com/wp-content/uploads/2017/11/31-1.jpg"
  },
  {
    "name": "Jean",
        "price": 100,
        "qty": 3,
        "color": ["gray", "white"],
        "size": ["S", "M"],
        "brand": "LV",
        "category": "Pants",
        "imageUrl": "http://aaajeans.com/wp-content/uploads/2016/07/rock-47r-by-wranglerr-boot-cut-jean-hn-wash-2-400x400.jpeg"
  },
  {
    "name": "Jean 2FFR",
        "price": 100,
        "qty": 3,
        "color": ["blue", "white"],
        "size": ["S", "M"],
        "brand": "LV",
        "category": "Pants",
        "imageUrl": "https://cdn3.yame.vn/pimg/quan-jean-nam-ma-bu-dai-b87-0015399/fd92080c-a678-2900-1208-0013ff9a98ea.jpg?w=540&h=756&c=true&ntf=false"
  },
  {
    "name": "Jean 3FFS",
        "price": 103,
        "qty": 7,
        "color": ["black", "white"],
        "size": ["S", "M", "L"],
        "brand": "Yame",
        "category": "Pants",
        "imageUrl": "https://s7d2.scene7.com/is/image/aeo/0436_1083_447_of?$PDP_78_Main$"
  },
  {
    "name": "Jean EFS",
        "price": 100,
        "qty": 3,
        "color": ["blue", "white"],
        "size": ["S", "M"],
        "brand": "HM",
        "category": "Pants",
        "imageUrl": "http://s7d9.scene7.com/is/image/AmericanApparel/rsads300w_mediumwash_01"
  },
  {
    "name": "Jean 98UF",
        "price": 100,
        "qty": 3,
        "color": ["black", "white"],
        "size": ["M"],
        "brand": "LV",
        "category": "Pants",
        "imageUrl": "https://saigonnewstyles.com/wp-content/uploads/2017/11/31-1.jpg"
  },
  {
    "name": "Jean",
        "price": 100,
        "qty": 3,
        "color": ["gray", "white"],
        "size": ["S", "M"],
        "brand": "LV",
        "category": "Pants",
        "imageUrl": "http://aaajeans.com/wp-content/uploads/2016/07/rock-47r-by-wranglerr-boot-cut-jean-hn-wash-2-400x400.jpeg"
  },
  {
    "name": "Jean",
        "price": 100,
        "qty": 3,
        "color": ["gray", "white"],
        "size": ["S", "M"],
        "brand": "LV",
        "category": "Pants",
        "imageUrl": "http://aaajeans.com/wp-content/uploads/2016/07/rock-47r-by-wranglerr-boot-cut-jean-hn-wash-2-400x400.jpeg"
  },
  {
    "name": "Jean 2FFR",
        "price": 100,
        "qty": 0,
        "color": ["blue", "white"],
        "size": ["S", "M"],
        "brand": "LV",
        "category": "Pants",
        "imageUrl": "https://cdn3.yame.vn/pimg/quan-jean-nam-ma-bu-dai-b87-0015399/fd92080c-a678-2900-1208-0013ff9a98ea.jpg?w=540&h=756&c=true&ntf=false"
  },
  {
    "name": "Jean 3FFS",
        "price": 103,
        "qty": 7,
        "color": ["black", "white"],
        "size": ["S", "M", "L"],
        "brand": "Yame",
        "category": "Pants",
        "imageUrl": "https://s7d2.scene7.com/is/image/aeo/0436_1083_447_of?$PDP_78_Main$"
  },
  {
    "name": "Jean EFS",
        "price": 100,
        "qty": 3,
        "color": ["blue", "white"],
        "size": ["S", "M"],
        "brand": "HM",
        "category": "Pants",
        "imageUrl": "http://s7d9.scene7.com/is/image/AmericanApparel/rsads300w_mediumwash_01"
  },
  {
    "name": "Jean 98UF",
        "price": 100,
        "qty": 3,
        "color": ["black", "white"],
        "size": ["M"],
        "brand": "LV",
        "category": "Pants",
        "imageUrl": "https://saigonnewstyles.com/wp-content/uploads/2017/11/31-1.jpg"
  },
  {
    "name": "Jean",
        "price": 100,
        "qty": 3,
        "color": ["gray", "white"],
        "size": ["S", "M"],
        "brand": "LV",
        "category": "Pants",
        "imageUrl": "http://aaajeans.com/wp-content/uploads/2016/07/rock-47r-by-wranglerr-boot-cut-jean-hn-wash-2-400x400.jpeg"
  },
  {
    "name": "Jean",
        "price": 100,
        "qty": 0,
        "color": ["gray", "white"],
        "size": ["S", "M"],
        "brand": "LV",
        "category": "Pants",
        "imageUrl": "http://aaajeans.com/wp-content/uploads/2016/07/rock-47r-by-wranglerr-boot-cut-jean-hn-wash-2-400x400.jpeg"
  },
  {
    "name": "Jean 2FFR",
        "price": 100,
        "qty": 3,
        "color": ["blue", "white"],
        "size": ["S", "M"],
        "brand": "LV",
        "category": "Pants",
        "imageUrl": "https://cdn3.yame.vn/pimg/quan-jean-nam-ma-bu-dai-b87-0015399/fd92080c-a678-2900-1208-0013ff9a98ea.jpg?w=540&h=756&c=true&ntf=false"
  },
  {
    "name": "Jean 3FFS",
        "price": 103,
        "qty": 7,
        "color": ["black", "white"],
        "size": ["S", "M", "L"],
        "brand": "Yame",
        "category": "Pants",
        "imageUrl": "https://s7d2.scene7.com/is/image/aeo/0436_1083_447_of?$PDP_78_Main$"
  },
  {
    "name": "Jean EFS",
        "price": 100,
        "qty": 3,
        "color": ["blue", "white"],
        "size": ["S", "M"],
        "brand": "HM",
        "category": "Pants",
        "imageUrl": "http://s7d9.scene7.com/is/image/AmericanApparel/rsads300w_mediumwash_01"
  },
  {
    "name": "Jean 98UF",
        "price": 100,
        "qty": 0,
        "color": ["black", "white"],
        "size": ["M"],
        "brand": "LV",
        "category": "Pants",
        "imageUrl": "https://saigonnewstyles.com/wp-content/uploads/2017/11/31-1.jpg"
  },
  {
    "name": "Jean",
        "price": 100,
        "qty": 3,
        "color": ["gray", "white"],
        "size": ["S", "M"],
        "brand": "LV",
        "category": "Pants",
        "imageUrl": "http://aaajeans.com/wp-content/uploads/2016/07/rock-47r-by-wranglerr-boot-cut-jean-hn-wash-2-400x400.jpeg"
  }
]